<?xml version="1.0" encoding="utf-8"?>
<!-- Generator: Adobe Illustrator 18.0.0, SVG Export Plug-In . SVG Version: 6.00 Build 0)  -->
<!DOCTYPE svg PUBLIC "-//W3C//DTD SVG 1.1//EN" "http://www.w3.org/Graphics/SVG/1.1/DTD/svg11.dtd">
<svg version="1.1" id="Layer_1" xmlns="http://www.w3.org/2000/svg" xmlns:xlink="http://www.w3.org/1999/xlink" x="0px" y="0px"
	 viewBox="3.7 0 10.4 18.4" enable-background="new 3.7 0 10.4 18.4" xml:space="preserve">
<polyline fill="none" stroke="#000000" stroke-miterlimit="10" points="13.7,18.3 4.6,9.2 13.7,0.2 "/>
</svg>
